1;Aprogramatoarei;Ionut
2;Apetrei;Ileana
3;Pop;Dan
4;Zaharia;Stancu
5;Marinescu;Andrei
6;Danilescu;Maria
7;Popescu;Ioana
8;Andron;Cristian


1;2;2016-03-04 12:30
1;3;2016-03-04 11:30
1;4;2016-04-04 10:03
2;3;2018-12-05 12:45
2;5;2018-12-07 13:41
7;8;2020-01-02 17:07